Sentence #1 (19 tokens):
"The first time I used it the opening ripped however it was very good and very tight.
[Text=`` CharacterOffsetBegin=0 CharacterOffsetEnd=1 PartOfSpeech=`` Lemma=`` NamedEntityTag=O]
[Text=The CharacterOffsetBegin=1 CharacterOffsetEnd=4 PartOfSpeech=DT Lemma=the NamedEntityTag=O]
[Text=first CharacterOffsetBegin=5 CharacterOffsetEnd=10 PartOfSpeech=JJ Lemma=first NamedEntityTag=ORDINAL NormalizedNamedEntityTag=1.0]
[Text=time CharacterOffsetBegin=11 CharacterOffsetEnd=15 PartOfSpeech=NN Lemma=time NamedEntityTag=O]
[Text=I CharacterOffsetBegin=16 CharacterOffsetEnd=17 PartOfSpeech=PRP Lemma=I NamedEntityTag=O]
[Text=used CharacterOffsetBegin=18 CharacterOffsetEnd=22 PartOfSpeech=VBD Lemma=use NamedEntityTag=O]
[Text=it CharacterOffsetBegin=23 CharacterOffsetEnd=25 PartOfSpeech=PRP Lemma=it NamedEntityTag=O]
[Text=the CharacterOffsetBegin=26 CharacterOffsetEnd=29 PartOfSpeech=DT Lemma=the NamedEntityTag=O]
[Text=opening CharacterOffsetBegin=30 CharacterOffsetEnd=37 PartOfSpeech=NN Lemma=opening NamedEntityTag=O]
[Text=ripped CharacterOffsetBegin=38 CharacterOffsetEnd=44 PartOfSpeech=VBD Lemma=rip NamedEntityTag=O]
[Text=however CharacterOffsetBegin=45 CharacterOffsetEnd=52 PartOfSpeech=RB Lemma=however NamedEntityTag=O]
[Text=it CharacterOffsetBegin=53 CharacterOffsetEnd=55 PartOfSpeech=PRP Lemma=it NamedEntityTag=O]
[Text=was CharacterOffsetBegin=56 CharacterOffsetEnd=59 PartOfSpeech=VBD Lemma=be NamedEntityTag=O]
[Text=very CharacterOffsetBegin=60 CharacterOffsetEnd=64 PartOfSpeech=RB Lemma=very NamedEntityTag=O]
[Text=good CharacterOffsetBegin=65 CharacterOffsetEnd=69 PartOfSpeech=JJ Lemma=good NamedEntityTag=O]
[Text=and CharacterOffsetBegin=70 CharacterOffsetEnd=73 PartOfSpeech=CC Lemma=and NamedEntityTag=O]
[Text=very CharacterOffsetBegin=74 CharacterOffsetEnd=78 PartOfSpeech=RB Lemma=very NamedEntityTag=O]
[Text=tight CharacterOffsetBegin=79 CharacterOffsetEnd=84 PartOfSpeech=JJ Lemma=tight NamedEntityTag=O]
[Text=. CharacterOffsetBegin=84 CharacterOffsetEnd=85 PartOfSpeech=. Lemma=. NamedEntityTag=O]
(ROOT
  (S (`` ``)
    (NP-TMP (DT The) (JJ first) (NN time))
    (NP (PRP I))
    (VP (VBD used)
      (NP (PRP it))
      (SBAR
        (S
          (NP (DT the) (NN opening))
          (VP (VBD ripped)
            (ADVP (RB however))
            (SBAR
              (S
                (NP (PRP it))
                (VP (VBD was)
                  (ADJP
                    (ADJP (RB very) (JJ good))
                    (CC and)
                    (ADJP (RB very) (JJ tight))))))))))
    (. .)))

root(ROOT-0, used-6)
punct(used-6, ``-1)
det(time-4, The-2)
amod(time-4, first-3)
nmod:tmod(used-6, time-4)
nsubj(used-6, I-5)
dobj(used-6, it-7)
det(opening-9, the-8)
nsubj(ripped-10, opening-9)
dep(used-6, ripped-10)
advmod(ripped-10, however-11)
nsubj(good-15, it-12)
cop(good-15, was-13)
advmod(good-15, very-14)
ccomp(ripped-10, good-15)
cc(good-15, and-16)
advmod(tight-18, very-17)
conj:and(good-15, tight-18)
punct(used-6, .-19)

Sentence #2 (7 tokens):
It does not last though."
[Text=It CharacterOffsetBegin=86 CharacterOffsetEnd=88 PartOfSpeech=PRP Lemma=it NamedEntityTag=O]
[Text=does CharacterOffsetBegin=89 CharacterOffsetEnd=93 PartOfSpeech=VBZ Lemma=do NamedEntityTag=O]
[Text=not CharacterOffsetBegin=94 CharacterOffsetEnd=97 PartOfSpeech=RB Lemma=not NamedEntityTag=O]
[Text=last CharacterOffsetBegin=98 CharacterOffsetEnd=102 PartOfSpeech=JJ Lemma=last NamedEntityTag=O]
[Text=though CharacterOffsetBegin=103 CharacterOffsetEnd=109 PartOfSpeech=IN Lemma=though NamedEntityTag=O]
[Text=. CharacterOffsetBegin=109 CharacterOffsetEnd=110 PartOfSpeech=. Lemma=. NamedEntityTag=O]
[Text='' CharacterOffsetBegin=110 CharacterOffsetEnd=111 PartOfSpeech='' Lemma='' NamedEntityTag=O]
(ROOT
  (S
    (NP (PRP It))
    (VP (VBZ does)
      (NP (RB not) (JJ last))
      (ADVP (IN though)))
    (. .) ('' '')))

root(ROOT-0, does-2)
nsubj(does-2, It-1)
neg(last-4, not-3)
dobj(does-2, last-4)
advmod(does-2, though-5)
punct(does-2, .-6)
punct(does-2, ''-7)

Coreference set:
	(1,7,[7,8]) -> (1,9,[8,10]), that is: "it" -> "the opening"
	(1,12,[12,13]) -> (1,9,[8,10]), that is: "it" -> "the opening"
	(2,1,[1,2]) -> (1,9,[8,10]), that is: "It" -> "the opening"
